Chapter 6 Interactive component | Exploration of Movie from Two Websites(IMDb and Douban)
…
## # A tibble: 6 x 9
##   Column1 movie_title                        year place rating   vote link               duration genre                     
##     <dbl> <chr>                             <dbl> <dbl>  <dbl>  <dbl> <chr>              <chr>    <chr>                     
## 1       0 The Batman                         2022     1    8   434477 /title/tt1877830/  176 min  Action, Crime, Drama      
## 2       1 The Northman                       2022     2    7.8  40320 /title/tt11138512/ 137 min  Action, Adventure, Drama  
## 3       2 Everything Everywhere All at Once  2022     3    8.8  31625 /title/tt6710474/  139 min  Action, Adventure, Comedy 
## 4       3 KGF: Chapter 2                     2022     4    8.9     55 /title/tt10698680/ 168 min  Action, Crime, Drama      
## 5       4 Spider-Man: No Way Home            2021     5    8.4  86180 /title/tt10872600/ 148 min  Action, Adventure, Fantasy
## 6       5 Dune                               2021     6    8.1 613257 /title/tt1160419/  155 min  Action, Adventure, Drama

6.1 Genre Changes over Time

6.1.1 IMDB

## # A tibble: 523 x 3
## # Groups:   year [89]
##     year genre_i   quantity
##    <dbl> <chr>        <int>
##  1  1920 Mystery          1
##  2  1920 Thriller         1
##  3  1927 Drama            1
##  4  1931 Crime            1
##  5  1931 Drama            1
##  6  1931 Mystery          1
##  7  1931 Thriller         1
##  8  1932 Drama            1
##  9  1933 Adventure        1
## 10  1934 Comedy           1
## # ... with 513 more rows
…
Infer

From this interactive lines plot on Trends of Top 10 Genres from 1920 to 2022(IMDB), we also derived that that:

1. Drama seems to be the most popular genre.

2. Compared with other film genres, the number of Drama in the top 700 list is several times or even a dozen times higher than other genres almost every year.

3. In the top 700 list, each genre occupies in the range of [0,18] in each year.

4. The number of films in all genres changed little before 1960, but grew dramatically from the 1990s onward, with significant growth in the number of films in the top five categories of Drama, Comedy, Thriller, Adventure, and Romance. After peaking around 2010, the number of movies has declined overall in recent years.

6.1.2 Douban

## # A tibble: 660 x 3
## # Groups:   Year [101]
##     Year genre_i  quantity
##    <dbl> <chr>       <int>
##  1  1916 Drama           1
##  2  1916 History         1
##  3  1916 Romance         1
##  4  1920 Crime           1
##  5  1921 Comedy          1
##  6  1921 Drama           2
##  7  1921 Family          1
##  8  1923 Comedy          2
##  9  1923 Romance         2
## 10  1923 Thriller        2
## # ... with 650 more rows
…
