Chapter 5 Results | Exploration of Movie from Two Websites(IMDb and Douban)
…
3. Compared with other film genres, the number of Drama in the top 1664 list is several times or even closed to a hundred times higher than other genres in the whole 102-year period in this intraday list on Douban website.

Conclusion for the Comparison on genres from IMDB and Douban:

1. Drama is the most popular genre on both websites from 1920 to 2020.

2. Comedy, Crime, and Action are also popular and ranked in the top five.

3. Romance has higher quantities on Douban, while Adventure has higher quantities on IMDB. Therefore, users of Douban prefer Romance than Adventure with high probabilities; users of IMDB prefer Adventure than Romance more likely.

5.2 Score and Reviewers

5.2.1 IMDB

## # A tibble: 90 x 5
## # Groups:   year [90]
##     year rating_mean vote_mean rating_normal vote_normal
##    <dbl>       <dbl>     <dbl>         <dbl>       <dbl>
##  1  1920        8       73627        -0.0603      -0.992
##  2  1922        7.9  66208183        -0.689        1.28 
##  3  1927        8.3    231868         1.83        -0.987
##  4  1931        8.05   113067         0.254       -0.991
##  5  1932        7.9     89581        -0.689       -0.992
##  6  1933        7.9  71516617        -0.689        1.47 
##  7  1934        7.9     26197        -0.689       -0.994
##  8  1937        7.6     99968        -2.58        -0.991
##  9  1938        7.8    530870        -1.32        -0.976
## 10  1939        8.05 13251644.        0.254       -0.539
## # ... with 80 more rows
…
5.2.2 Douban

## # A tibble: 102 x 5
## # Groups:   Year [102]
##     Year Reviews_m Rank_m Reviews_n Rank_n
##    <dbl>     <dbl>  <dbl>     <dbl>  <dbl>
##  1  1916     9897    8.8     -0.989  1.13 
##  2  1920    23030    8.9     -0.833  1.58 
##  3  1921    21380    8.8     -0.852  1.13 
##  4  1922    13485    8.2     -0.946 -1.58 
##  5  1923     7644.   8.75    -1.02   0.903
##  6  1924    14031    9.1     -0.940  2.48 
##  7  1925    28915.   8.93    -0.763  1.73 
##  8  1926    24433    9.1     -0.816  2.48 
##  9  1927    26657    8.95    -0.790  1.80 
## 10  1928    10877.   8.8     -0.977  1.13 
## # ... with 92 more rows
…
